…
## Repeat the train/test split

``` r
cv_df <- crossv_mc(lidar_df, 100) |> 
  mutate(
    train = map(train, as_tibble),
    test = map(test, as_tibble))

cv_df |>  
  pull(train) |>
  nth(3) |> 
  as_tibble()
```

    ## # A tibble: 176 × 3
    ##    range logratio    id
    ##    <int>    <dbl> <int>
    ##  1   390  -0.0504     1
    ##  2   391  -0.0601     2
    ##  3   393  -0.0419     3
    ##  4   394  -0.0510     4
    ##  5   396  -0.0599     5
    ##  6   399  -0.0596     7
    ##  7   400  -0.0399     8
    ##  8   402  -0.0294     9
    ##  9   403  -0.0395    10
    ## 10   405  -0.0476    11
    ## # ℹ 166 more rows
…
