…
We can also compute fitted values; similarly to the estimates in the
model summary, these are expressed as log odds and can be transformed to
produce probabilities for each subject.

``` r
baltimore_df |> 
  modelr::add_predictions(fit_logistic) |> 
  mutate(fitted_prob = boot::inv.logit(pred))
```

    ## # A tibble: 2,827 × 6
    ##    resolved victim_age victim_race victim_sex    pred fitted_prob
    ##       <dbl>      <dbl> <fct>       <chr>        <dbl>       <dbl>
    ##  1        0         17 Black       Male       -0.654        0.342
    ##  2        0         26 Black       Male       -0.720        0.327
    ##  3        0         21 Black       Male       -0.683        0.335
    ##  4        1         61 White       Male       -0.131        0.467
    ##  5        1         46 Black       Male       -0.864        0.296
    ##  6        1         27 Black       Male       -0.727        0.326
    ##  7        1         21 Black       Male       -0.683        0.335
    ##  8        1         16 Black       Male       -0.647        0.344
    ##  9        1         21 Black       Male       -0.683        0.335
    ## 10        1         44 Black       Female      0.0297       0.507
    ## # ℹ 2,817 more rows
